Day-0,1: Data Preperation and Introduction to ggplot2 – Data Visualization with ggplot
…
Rows: 397
Columns: 6
$ rank          <chr> "Prof", "Prof", "AsstProf", "Prof", "Prof", "AssocProf",…
$ discipline    <chr> "B", "B", "B", "B", "B", "B", "B", "B", "B", "B", "B", "…
$ yrs.since.phd <dbl> 19, 20, 4, 45, 40, 6, 30, 45, 21, 18, 12, 7, 1, 2, 20, 1…
$ yrs.service   <dbl> 18, 16, 3, 39, 41, 6, 23, 45, 20, 18, 8, 2, 1, 0, 18, 3,…
$ sex           <chr> "Male", "Male", "Male", "Male", "Male", "Male", "Male", …
$ salary        <dbl> 139750, 173200, 79750, 115000, 141500, 97000, 175000, 14…

# Use select function to select rank and discipline columns
subset <- Salaries %>% select(rank,discipline)
subset

# A tibble: 397 × 2
   rank      discipline
   <chr>     <chr>     
 1 Prof      B         
 2 Prof      B         
 3 AsstProf  B         
 4 Prof      B         
 5 Prof      B         
 6 AssocProf B         
 7 Prof      B         
 8 Prof      B         
 9 Prof      B         
10 Prof      B         
# ℹ 387 more rows

# Use mutate to create a new column color using discipline where A:red and B:blue  
subset %>% mutate(color=ifelse(discipline=='A','red','blue'))

# A tibble: 397 × 3
   rank      discipline color
   <chr>     <chr>      <chr>
 1 Prof      B          blue 
 2 Prof      B          blue 
 3 AsstProf  B          blue 
 4 Prof      B          blue 
 5 Prof      B          blue 
 6 AssocProf B          blue 
 7 Prof      B          blue 
 8 Prof      B          blue 
 9 Prof      B          blue 
10 Prof      B          blue 
# ℹ 387 more rows
…
